waves.vcd
$date
	Tue Jun 16 21:26:15 2026
$end

$version
	Synopsys VCS version T-2022.06-SP2_Full64
$end

$timescale
	1s
$end

$comment Csum: 1 9696cd8a191b54d5 $end


$scope module top_tb $end
$var reg 1 ! clk $end

$scope begin unnamed$$_vcs_4 $end

$scope fork unnamed$$_vcs_0 $end

$scope begin unnamed$$_vcs_1 $end
$upscope $end

$upscope $end

$upscope $end


$scope begin unnamed$$_vcs_2 $end
$upscope $end


$scope begin unnamed$$_vcs_3 $end
$upscope $end


$scope module vif $end
$var reg 1 " clk $end
$var reg 1 # rst_n $end
$var reg 1 $ in_vld $end
$var reg 1 % in_rdy $end
$var reg 8 & data_in [7:0] $end
$var reg 32 ' cfg [31:0] $end
$var reg 1 ( local_vld $end
$var reg 1 ) local_rdy $end
$var reg 8 * data_local [7:0] $end
$var reg 1 + remote_vld $end
$var reg 1 , remote_rdy $end
$var reg 32 - data_remote [31:0] $end
$upscope $end


$scope module dut $end
$var reg 1 . clk $end
$var reg 1 / rst_n $end
$var reg 1 0 in_vld $end
$var reg 1 1 in_rdy $end
$var reg 8 2 data_in [7:0] $end
$var reg 32 3 cfg [31:0] $end
$var reg 16 4 drop_cnt [15:0] $end
$var reg 1 5 local_vld $end
$var reg 1 6 local_rdy $end
$var reg 8 7 data_local [7:0] $end
$var reg 1 8 remote_vld $end
$var reg 1 9 remote_rdy $end
$var reg 32 : data_remote [31:0] $end
$var reg 1 ; remote_active $end
$var reg 32 < active_seq [31:0] $end
$var reg 32 = active_max_frag [31:0] $end
$var reg 2 > rx_st [1:0] $end
$var reg 1 ? rx_is_remote $end
$var reg 1 @ rx_drop $end
$var reg 32 A rx_seq [31:0] $end
$var reg 32 B rx_len [31:0] $end
$var reg 32 C rx_frag [31:0] $end
$var reg 32 D payload_left [31:0] $end
$var reg 32 E crc_left [31:0] $end

$scope begin unnamed$$_vcs_0 $end
$upscope $end


$scope begin unnamed$$_vcs_1 $end
$upscope $end


$scope begin unnamed$$_vcs_2 $end

$scope begin unnamed$$_0 $end
$upscope $end


$scope begin unnamed$$_1 $end
$upscope $end


$scope begin unnamed$$_2 $end
$upscope $end

$upscope $end

$upscope $end

$upscope $end

$enddefinitions $end

#0
$dumpvars
0!
b00000000000000000000000000000000 -
b00000000 *
bxxxxxxxxxxxxxxxxxxxxxxxxxxxxxxxx '
bxxxxxxxx &
05
08
0;
0@
0?
bxxxxxxxxxxxxxxxxxxxxxxxxxxxxxxxx 3
bxxxxxxxx 2
b00000000 7
b00000000000000000000000000000000 :
b0000000000000000 4
b00 >
b00000000000000000000000000000000 =
b00000000000000000000000000000000 <
b00000000000000000000000000000000 E
b00000000000000000000000000000000 D
b00000000000000000000000000000000 C
b00000000000000000000000000000000 B
b00000000000000000000000000000000 A
1)
16
1,
19
0#
0/
11
1%
0.
x0
0"
x$
0(
0+
$end
#5
1!
1.
1"
#10
0!
0.
0"
#15
1!
1.
1"
#20
1#
1/
0!
0.
0"
#25
1!
1.
1"
1$
10
b00000000000000100001000000110000 '
b00000000000000100001000000110000 3
b10101010 &
b10101010 2
#30
0!
0.
0"
#35
1!
1.
1"
1@
b00000000000000000000000000010000 B
b00000000000000000000000000000010 C
b00000000000000000000000000001111 D
b00000000000000000000000000000010 E
b0000000000000001 4
b01 >
b10111011 &
b10111011 2
#40
0!
0.
0"
#45
1!
1.
1"
b00000000000000000000000000001110 D
b11001100 &
b11001100 2
#50
0!
0.
0"
#55
1!
1.
1"
b00000000000000000000000000001101 D
0$
00
#60
0!
0.
0"
#65
1!
1.
1"
1$
10
b10101010 &
b10101010 2
#70
0!
0.
0"
#75
1!
1.
1"
b00000000000000000000000000001100 D
b10111011 &
b10111011 2
#80
0!
0.
0"
#85
1!
1.
1"
b00000000000000000000000000001011 D
b11001100 &
b11001100 2
#90
0!
0.
0"
#95
1!
1.
1"
b00000000000000000000000000001010 D
0$
00
#100
0!
0.
0"
#105
1!
1.
1"
1$
10
b10101010 &
b10101010 2
#110
0!
0.
0"
#115
1!
1.
1"
b00000000000000000000000000001001 D
b10111011 &
b10111011 2
#120
0!
0.
0"
#125
1!
1.
1"
b00000000000000000000000000001000 D
b11001100 &
b11001100 2
#130
0!
0.
0"
#135
1!
1.
1"
b00000000000000000000000000000111 D
0$
00
#140
0!
0.
0"
#145
1!
1.
1"
1$
10
b10101010 &
b10101010 2
#150
0!
0.
0"
#155
1!
1.
1"
b00000000000000000000000000000110 D
b10111011 &
b10111011 2
#160
0!
0.
0"
#165
1!
1.
1"
b00000000000000000000000000000101 D
b11001100 &
b11001100 2
#170
0!
0.
0"
#175
1!
1.
1"
b00000000000000000000000000000100 D
0$
00
#180
0!
0.
0"
#185
1!
1.
1"
1$
10
b10101010 &
b10101010 2
#190
0!
0.
0"
#195
1!
1.
1"
b00000000000000000000000000000011 D
b10111011 &
b10111011 2
#200
0!
0.
0"
#205
1!
1.
1"
b00000000000000000000000000000010 D
b10 >
b11001100 &
b11001100 2
#210
0!
0.
0"
#215
1!
1.
1"
b00000000000000000000000000000001 E
0$
00
